<?xml version="1.0" encoding="UTF-8" standalone="no"?>
<svg
   xmlns:dc="http://purl.org/dc/elements/1.1/"
   xmlns:cc="http://creativecommons.org/ns#"
   xmlns:rdf="http://www.w3.org/1999/02/22-rdf-syntax-ns#"
   xmlns:svg="http://www.w3.org/2000/svg"
   xmlns="http://www.w3.org/2000/svg"
   version="1.1"
   id="svg2"
   viewBox="0 0 450 450.00001"
   height="450"
   width="450">
  <metadata
     id="metadata7">
    <rdf:RDF>
      <cc:Work
         rdf:about="">
        <dc:format>image/svg+xml</dc:format>
        <dc:type
           rdf:resource="http://purl.org/dc/dcmitype/StillImage" />
        <dc:title></dc:title>
      </cc:Work>
    </rdf:RDF>
  </metadata>
  <g
     transform="translate(0,-602.36216)"
     id="layer1">
    <path
       id="path3347"
       d="m 145.8755,826.51823 c 74.31258,-74.21658 136.58954,-134.99763 138.39324,-135.06899 2.51162,-0.0994 3.27946,11.39149 3.27946,49.07709 l 0,49.2068 -85.93655,85.90697 -85.93656,85.90696 -52.456692,-0.0449 -52.456672,-0.0449 L 145.8755,826.51799 Z m 158.75396,-2.05262 c 77.25087,-77.63827 137.23334,-135.9438 138.32501,-134.45788 1.06013,1.44295 1.94559,24.44549 1.96767,51.11674 l 0.04,48.4932 -86.7207,85.96468 -86.72071,85.96471 -51.64448,0 -51.64447,0 136.39751,-137.08145 z m 77.22078,78.19769 c 32.36209,-32.38607 59.80134,-58.28974 60.97611,-57.56367 1.17479,0.72604 2.13595,27.22375 2.13595,58.88377 l 0,57.56366 -60.9761,0 -60.97608,0 58.84012,-58.88376 z"
       />
  </g>
</svg>
