<?xml version="1.0" encoding="utf-8"?>
<!-- Generator: Adobe Illustrator 17.0.0, SVG Export Plug-In . SVG Version: 6.00 Build 0)  -->
<!DOCTYPE svg PUBLIC "-//W3C//DTD SVG 1.1//EN" "http://www.w3.org/Graphics/SVG/1.1/DTD/svg11.dtd">
<svg version="1.1"
	 id="svg2" xmlns:sodipodi="http://inkscape.sourceforge.net/DTD/sodipodi-0.dtd" xmlns:cc="http://web.resource.org/cc/" xmlns:dc="http://purl.org/dc/elements/1.1/" xmlns:rdf="http://www.w3.org/1999/02/22-rdf-syntax-ns#" xmlns:inkscape="http://www.inkscape.org/namespaces/inkscape" xmlns:svg="http://www.w3.org/2000/svg" sodipodi:version="0.32" sodipodi:docbase="D:\" inkscape:version="0.40+cvs" sodipodi:docname="mousepointer1_ink.svg"
	 xmlns="http://www.w3.org/2000/svg" xmlns:xlink="http://www.w3.org/1999/xlink" x="0px" y="0px"
	 viewBox="0 0 612 792" enable-background="new 0 0 612 792" xml:space="preserve">
<sodipodi:namedview  id="base" showguides="true" showgrid="true" gridspacingx="10.000000mm" gridoriginx="0.00000000mm" gridtolerance="5.0000000mm" inkscape:zoom="0.62906099" inkscape:cx="372.04724" inkscape:cy="549.90119" pagecolor="#ffffff" gridspacingy="10.000000mm" gridoriginy="0.00000000mm" borderopacity="1.0" bordercolor="#666666" inkscape:window-y="29" inkscape:window-x="22" inkscape:window-width="992" inkscape:window-height="841" inkscape:pageshadow="2" inkscape:pageopacity="0.0" inkscape:guide-points="true" inkscape:guide-bbox="true" inkscape:grid-points="true" inkscape:grid-bbox="true" inkscape:document-units="px" inkscape:current-layer="layer1">
	</sodipodi:namedview>
<g id="layer1" inkscape:label="Layer 1" inkscape:groupmode="layer">
	<g id="g1317">
		
			<linearGradient id="path6080_1_" gradientUnits="userSpaceOnUse" x1="-539.3278" y1="692.9709" x2="1358.0922" y2="266.7195" gradientTransform="matrix(0.7559 0 0 -1.3229 -35.878 1048.8904)">
			<stop  offset="0" style="stop-color:#000000"/>
			<stop  offset="1" style="stop-color:#000000;stop-opacity:0"/>
		</linearGradient>
		<path id="path6080" fill="url(#path6080_1_)" d="M70.29,24.826V627.17h35.438v-35.438h35.437v-35.406h35.406v-35.438h35.438
			h35.438v70.844h35.438v70.875h35.438v70.875h35.438v35.438h70.844v-35.438h35.438v-70.875h-35.438v-70.875h-35.406v-70.844
			h-35.438v-70.875h141.719v-35.438H460.04v-35.438h-35.438v-35.438h-35.406v-35.406h-35.438v-35.438h-35.438V237.42h-35.438
			v-35.438h-35.438v-35.438h-35.438v-35.438h-35.438V95.67h-35.406V60.264h-35.437V24.826H70.29z"/>
		<path id="rect1430" d="M35.438,24.813v602.344h35.438v-35.438h35.438v-35.406H70.875V95.656h35.438V60.25H70.875V24.813H35.438z
			 M106.313,95.656v35.438h35.406V95.656H106.313z M141.719,131.094v35.438h35.438v-35.438H141.719z M177.156,166.531v35.438h35.438
			v-35.438H177.156z M212.594,201.969v35.438h35.438v-35.438H212.594z M248.031,237.406v35.438h35.438v-35.438H248.031z
			 M283.469,272.844v35.438h35.438v-35.438H283.469z M318.906,308.281v35.406h35.438v-35.406H318.906z M354.344,343.688v35.438
			h35.406v-35.438H354.344z M389.75,379.125v35.438H283.469V450v70.875h35.438V450h141.719v-35.438h-35.438v-35.438H389.75z
			 M318.906,520.875v70.844h35.438v-70.844H318.906z M354.344,591.719v70.875h35.406v-70.875H354.344z M389.75,662.594v70.875
			h35.438v-70.875H389.75z M389.75,733.469h-70.844v35.438h70.844V733.469z M318.906,733.469v-70.875h-35.438v70.875H318.906z
			 M283.469,662.594v-70.875h-35.438v70.875H283.469z M248.031,591.719v-70.844h-35.438v70.844H248.031z M212.594,520.875V450
			h-35.438v35.438h-35.438v35.438h35.438H212.594z M141.719,520.875h-35.406v35.438h35.406V520.875z"/>
		<path id="rect3779" fill="#FFFFFF" d="M70.875,95.656v460.656h35.438v-35.438h35.406v-35.438h35.438V450h35.438v70.875h35.438
			v70.844h35.438v70.875h35.438v70.875h35.438h35.406v-70.875h-35.406v-70.875h-35.438v-70.844h-35.438V414.563h35.438h35.438
			h35.406v-35.438h-35.406v-35.438h-35.438v-35.406h-35.438v-35.438h-35.438v-35.438h-35.438v-35.438h-35.438v-35.438h-35.438
			v-35.438h-35.406V95.656H70.875z"/>
	</g>
</g>
</svg>
